C:\Practice_Examples\src\test\java\TestNG\TEST\ParallelTest3.java
C:\Practice_Examples\src\test\java\TestNG\TEST\DataProviderExample.java
C:\Practice_Examples\src\test\java\TestNG\TEST\PriorityDepedency.java
C:\Practice_Examples\src\test\java\TestNG\TEST\TestngTest.java
C:\Practice_Examples\src\test\java\abc\Simple.java
C:\Practice_Examples\src\test\java\TestNG\TEST\ParameterizedTest1.java
C:\Practice_Examples\src\test\java\com\examples\test\ServiceLoaderTest.java
C:\Practice_Examples\src\test\java\com\examples\serviceproviders\MessageServiceProvider.java
C:\Practice_Examples\src\test\java\com\examples\serviceproviders\PushNotificationServiceProvider.java
C:\Practice_Examples\src\test\java\TestNG\TEST\DependencyTestUsingAnnotation.java
C:\Practice_Examples\src\test\java\abc\RetryAnalyzerListenerEx.java
C:\Practice_Examples\src\test\java\TestNG\TEST\RetryAnalyzer.java
C:\Practice_Examples\src\test\java\abc\MessageServiceProvider.java
C:\Practice_Examples\src\test\java\TestNG\TEST\ExceptionTest.java
C:\Practice_Examples\src\test\java\abc\MyConfigListener.java
C:\Practice_Examples\src\test\java\TestNG\TEST\ParallelTest1.java
C:\Practice_Examples\src\test\java\TestNG\TEST\Annotations.java
C:\Practice_Examples\src\test\java\TestNG\TEST\DependencyTestUsingAnnotation1.java
C:\Practice_Examples\src\test\java\com\examples\test\ActualTest.java
C:\Practice_Examples\src\test\java\TestNG\TEST\GroupTest.java
C:\Practice_Examples\src\test\java\com\examples\serviceproviders\EmailServiceProvider.java
C:\Practice_Examples\src\test\java\TestNG\TEST\IConfigurationListenerExample.java
C:\Practice_Examples\src\test\java\TestNG\TEST\ParallelTest2.java
C:\Practice_Examples\src\test\java\com\examples\serviceproviders\TmpSuiteListener.java
C:\Practice_Examples\src\test\java\TestNG\TEST\Calculate.java
